{
    "photos": {
        "page": 1,
        "pages": 7464,
        "perpage": 24,
        "total": "179116",
        "photo": [
            {
                "id": "50831271162",
                "owner": "78165853@N02",
                "secret": "398bb7134c",
                "server": "65535",
                "farm": 66,
                "title": "Interrupted Breakfast",
                "ispublic": 1,
                "isfriend": 0,
                "isfamily": 0
            },
            {
                "id": "50831267772",
                "owner": "132475948@N05",
                "secret": "f034e5c29a",
                "server": "65535",
                "farm": 66,
                "title": "Sierra de Caltrava",
                "ispublic": 1,
                "isfriend": 0,
                "isfamily": 0
            },
            {
                "id": "50831266797",
                "owner": "133275046@N07",
                "secret": "b0ec65f903",
                "server": "65535",
                "farm": 66,
                "title": "Castillo de Loarre (Huesca)",
                "ispublic": 1,
                "isfriend": 0,
                "isfamily": 0
            },
            {
                "id": "50831265642",
                "owner": "55276107@N00",
                "secret": "8d6c79b1ae",
                "server": "65535",
                "farm": 66,
                "title": "Touring at the Zirbitzkogel",
                "ispublic": 1,
                "isfriend": 0,
                "isfamily": 0
            },
            {
                "id": "50831232877",
                "owner": "183172956@N07",
                "secret": "6fb4c7e0cf",
                "server": "65535",
                "farm": 66,
                "title": "Alpstein (Appenzell)",
                "ispublic": 1,
                "isfriend": 0,
                "isfamily": 0
            },
            {
                "id": "50817034482",
                "owner": "81035653@N00",
                "secret": "8308dbdf08",
                "server": "65535",
                "farm": 66,
                "title": "A huge cruise ship docked in Kotor is dwarfed by the surrounding mountains",
                "ispublic": 1,
                "isfriend": 0,
                "isfamily": 0
            },
            {
                "id": "50830296143",
                "owner": "80104491@N03",
                "secret": "b5f78e718c",
                "server": "65535",
                "farm": 66,
                "title": "Les Diablerets",
                "ispublic": 1,
                "isfriend": 0,
                "isfamily": 0
            },
            {
                "id": "50830979067",
                "owner": "145137719@N06",
                "secret": "0670632a24",
                "server": "65535",
                "farm": 66,
                "title": "The farms of Askvik and (beyond) Storset towards Mt. Austlendingen",
                "ispublic": 1,
                "isfriend": 0,
                "isfamily": 0
            },
            {
                "id": "50830131403",
                "owner": "184307436@N07",
                "secret": "e880eb3e97",
                "server": "65535",
                "farm": 66,
                "title": "Snow on the Surface",
                "ispublic": 1,
                "isfriend": 0,
                "isfamily": 0
            },
            {
                "id": "50830121913",
                "owner": "128003162@N08",
                "secret": "6fa7e96f4b",
                "server": "65535",
                "farm": 66,
                "title": "First snows",
                "ispublic": 1,
                "isfriend": 0,
                "isfamily": 0
            },
            {
                "id": "50830108123",
                "owner": "30415438@N06",
                "secret": "3209912087",
                "server": "65535",
                "farm": 66,
                "title": "Canyon de Anisclo",
                "ispublic": 1,
                "isfriend": 0,
                "isfamily": 0
            },
            {
                "id": "50830070448",
                "owner": "91856290@N08",
                "secret": "2c2f59092d",
                "server": "65535",
                "farm": 66,
                "title": "The Boarding Party",
                "ispublic": 1,
                "isfriend": 0,
                "isfamily": 0
            },
            {
                "id": "50830901677",
                "owner": "91856290@N08",
                "secret": "c2eb84d2c7",
                "server": "65535",
                "farm": 66,
                "title": "The Boarding Party",
                "ispublic": 1,
                "isfriend": 0,
                "isfamily": 0
            },
            {
                "id": "14954170347",
                "owner": "96230946@N07",
                "secret": "b359ac33b0",
                "server": "3859",
                "farm": 4,
                "title": "Dôme de Miage - Alpes - France",
                "ispublic": 1,
                "isfriend": 0,
                "isfamily": 0
            },
            {
                "id": "50830044663",
                "owner": "187458160@N06",
                "secret": "8610062555",
                "server": "65535",
                "farm": 66,
                "title": "a survivor",
                "ispublic": 1,
                "isfriend": 0,
                "isfamily": 0
            },
            {
                "id": "50830780226",
                "owner": "190612770@N04",
                "secret": "9c63d0b6d6",
                "server": "65535",
                "farm": 66,
                "title": "Montagne de Lure",
                "ispublic": 1,
                "isfriend": 0,
                "isfamily": 0
            },
            {
                "id": "50830788582",
                "owner": "85314460@N02",
                "secret": "55f2850a23",
                "server": "65535",
                "farm": 66,
                "title": "Mirror image",
                "ispublic": 1,
                "isfriend": 0,
                "isfamily": 0
            },
            {
                "id": "50829949853",
                "owner": "187109135@N03",
                "secret": "17c42378b0",
                "server": "65535",
                "farm": 66,
                "title": "Chasing fog",
                "ispublic": 1,
                "isfriend": 0,
                "isfamily": 0
            },
            {
                "id": "50830767142",
                "owner": "188125262@N03",
                "secret": "4cd3c1a3a5",
                "server": "65535",
                "farm": 66,
                "title": "Ласточкино гнездо",
                "ispublic": 1,
                "isfriend": 0,
                "isfamily": 0
            },
            {
                "id": "50829926953",
                "owner": "21528540@N05",
                "secret": "07386aa54f",
                "server": "65535",
                "farm": 66,
                "title": "Zhangjiajie China by Canon 6D + 24mm f1.4",
                "ispublic": 1,
                "isfriend": 0,
                "isfamily": 0
            },
            {
                "id": "50829926323",
                "owner": "21528540@N05",
                "secret": "6dae099099",
                "server": "65535",
                "farm": 66,
                "title": "Zhangjiajie China by Canon 6D + 24mm f1.4",
                "ispublic": 1,
                "isfriend": 0,
                "isfamily": 0
            },
            {
                "id": "50830704947",
                "owner": "95354672@N05",
                "secret": "438e3c5bdd",
                "server": "65535",
                "farm": 66,
                "title": "Durchblick",
                "ispublic": 1,
                "isfriend": 0,
                "isfamily": 0
            },
            {
                "id": "50830690932",
                "owner": "184789499@N06",
                "secret": "2d0c1a8cfc",
                "server": "65535",
                "farm": 66,
                "title": "Winter wind",
                "ispublic": 1,
                "isfriend": 0,
                "isfamily": 0
            },
            {
                "id": "50830594491",
                "owner": "188001530@N03",
                "secret": "75a73cd3e7",
                "server": "65535",
                "farm": 66,
                "title": "Wildflowers on Mount Rainier",
                "ispublic": 1,
                "isfriend": 0,
                "isfamily": 0
            }
        ]
    },
    "stat": "ok"
}